<svg width="160" height="65" viewBox="0 0 160 65" fill="none" xmlns="http://www.w3.org/2000/svg">
<g clip-path="url(#clip0_4111_4744)">
<path d="M23.6942 17.8106C24.4022 18.5746 25.1489 19.2919 25.7836 20.1319C26.0636 20.5053 26.3302 20.8906 26.5329 21.3239C26.8209 21.9399 26.5596 22.6173 26.0596 22.6546L22.9529 22.6519C22.1502 22.7266 21.5116 22.3693 20.9729 21.7639C20.5436 21.2799 20.1449 20.7639 19.7302 20.2653C19.5679 20.0589 19.3797 19.8743 19.1702 19.7159C18.7476 19.4119 18.3796 19.5039 18.1369 19.9933C17.8889 20.4906 17.8329 21.0413 17.8089 21.5946C17.7756 22.4026 17.5556 22.6159 16.8196 22.6519C15.2489 22.7346 13.7582 22.4719 12.3729 21.5959C11.1516 20.8253 10.2049 19.7359 9.37958 18.5026C7.77558 16.1013 6.54758 13.4626 5.44225 10.7493C5.19291 10.1386 5.37425 9.81059 5.98625 9.79992C6.9999 9.77836 8.01389 9.77747 9.02758 9.79725C9.43958 9.80392 9.71158 10.0639 9.87158 10.4946C10.4196 11.9839 11.0902 13.4013 11.9329 14.7159C12.1582 15.0653 12.3862 15.4146 12.7129 15.6613C13.0729 15.9333 13.3476 15.8426 13.5169 15.3999C13.6236 15.1186 13.6716 14.8159 13.6956 14.5146C13.7756 13.4786 13.7862 12.4439 13.6462 11.4119C13.5596 10.7679 13.2302 10.3506 12.6489 10.2293C12.3516 10.1666 12.3956 10.0439 12.5396 9.85725C12.7902 9.53459 13.0249 9.33325 13.4942 9.33325H17.0062C17.5596 9.45325 17.6822 9.72792 17.7582 10.3426L17.7609 14.6519C17.7542 14.8893 17.8676 15.5959 18.2569 15.7533C18.5662 15.8653 18.7716 15.5906 18.9582 15.3733C19.7982 14.3866 20.3982 13.2226 20.9356 12.0159C21.1729 11.4853 21.3782 10.9359 21.5756 10.3839C21.7222 9.97592 21.9529 9.77459 22.3702 9.78392L25.7502 9.78792C25.8502 9.78792 25.9516 9.78792 26.0489 9.80659C26.6196 9.91325 26.7756 10.1853 26.5996 10.7999C26.3222 11.7639 25.7822 12.5666 25.2556 13.3733C24.6916 14.2346 24.0889 15.0666 23.5289 15.9333C23.0156 16.7253 23.0569 17.1239 23.6942 17.8106Z" fill="white"/>
</g>
<path d="M38.5952 14.8207C38.5952 14.8207 47.6934 10.8066 50.8489 9.39315C52.0585 8.82781 56.1606 7.01859 56.1606 7.01859C56.1606 7.01859 58.0539 6.22713 57.8961 8.14934C57.8434 8.94088 57.4227 11.7111 57.002 14.7076C56.3709 18.9479 55.6872 23.5838 55.6872 23.5838C55.6872 23.5838 55.5821 24.8842 54.688 25.1103C53.794 25.3365 52.3214 24.3189 52.0585 24.0926C51.8481 23.9231 48.1141 21.3789 46.7468 20.1351C46.3786 19.7959 45.9579 19.1175 46.7993 18.3259C48.6926 16.4602 50.954 14.1423 52.3214 12.6723C52.9525 11.9938 53.5836 10.4108 50.954 12.333C47.2201 15.1034 43.5387 17.704 43.5387 17.704C43.5387 17.704 42.6973 18.2694 41.1195 17.7605C39.5418 17.2518 37.7011 16.5733 37.7011 16.5733C37.7011 16.5733 36.439 15.7253 38.5952 14.8207Z" fill="white"/>
<path d="M85.2037 17.3036C85.1638 17.2829 83.671 16.4857 83.4057 16.3821C83.2974 16.34 83.1814 16.2988 83.058 16.2988C82.8564 16.2988 82.6871 16.4077 82.5552 16.6217C82.4061 16.8621 81.9546 17.4344 81.8152 17.6053C81.7969 17.6279 81.7721 17.6548 81.7572 17.6548C81.7438 17.6548 81.5128 17.5517 81.4429 17.5187C79.8415 16.7643 78.6259 14.9502 78.4593 14.6443C78.4355 14.6003 78.4345 14.5803 78.4343 14.5803C78.4401 14.5571 78.494 14.4985 78.5218 14.4683C78.6031 14.3811 78.6912 14.2661 78.7764 14.1548C78.8168 14.1021 78.8572 14.0493 78.8969 13.9996C79.0205 13.8435 79.0756 13.7224 79.1394 13.5821L79.1728 13.5092C79.3287 13.1734 79.1956 12.8901 79.1526 12.7986C79.1173 12.722 78.4869 11.0722 78.4199 10.8989C78.2588 10.4806 78.0458 10.2859 77.7499 10.2859C77.7224 10.2859 77.7499 10.2859 77.6347 10.2912C77.4945 10.2976 76.731 10.4066 76.3934 10.6374C76.0354 10.8822 75.4297 11.6624 75.4297 13.0346C75.4297 14.2697 76.1524 15.4357 76.4626 15.8792C76.4704 15.8904 76.4845 15.9131 76.5051 15.9457C77.6933 17.8277 79.1746 19.2224 80.6763 19.8729C82.122 20.4992 82.8066 20.5716 83.1958 20.5716H83.1958C83.3594 20.5716 83.4903 20.5577 83.6058 20.5454L83.679 20.5378C84.1784 20.4898 85.276 19.873 85.5256 19.1207C85.7223 18.5281 85.7741 17.8806 85.6433 17.6456C85.5537 17.4858 85.3992 17.4055 85.2037 17.3036Z" fill="white"/>
<path d="M80.1832 5.71436C74.6118 5.71436 70.0791 10.213 70.0791 15.7425C70.0791 17.5309 70.5577 19.2815 71.4644 20.8137L69.729 25.9329C69.6967 26.0283 69.7207 26.1338 69.7913 26.2057C69.8423 26.2577 69.9114 26.2858 69.982 26.2858C70.009 26.2858 70.0363 26.2817 70.0629 26.2732L75.4008 24.577C76.8615 25.3575 78.5124 25.7694 80.1832 25.7694C85.7541 25.7695 90.2863 21.2714 90.2863 15.7425C90.2863 10.213 85.7541 5.71436 80.1832 5.71436ZM80.1832 23.6806C78.611 23.6806 77.0882 23.2266 75.7793 22.3677C75.7352 22.3387 75.6842 22.3239 75.6327 22.3239C75.6055 22.3239 75.5783 22.3281 75.5518 22.3365L72.8778 23.1864L73.741 20.6398C73.7689 20.5574 73.755 20.4665 73.7036 20.3962C72.7068 19.0342 72.1799 17.425 72.1799 15.7425C72.1799 11.3648 75.7701 7.80329 80.1831 7.80329C84.5955 7.80329 88.1854 11.3648 88.1854 15.7425C88.1854 20.1196 84.5957 23.6806 80.1832 23.6806Z" fill="white"/>
<path d="M114.222 5H109.778C105.47 5 102 8.43538 102 12.7V16C102 18.9785 103.726 21.6862 106.444 22.9554V26.6446C106.444 26.8308 106.615 27 106.838 27C106.923 27 107.026 26.9662 107.094 26.8985L110.308 23.7H114.222C118.53 23.7 122 20.2646 122 16V12.7C122 8.43538 118.53 5 114.222 5ZM117.145 19.4354L116.034 20.5354C114.838 21.6862 111.761 20.3662 109.043 17.6246C106.325 14.8831 105.111 11.7862 106.256 10.6354L107.368 9.53538C107.812 9.12923 108.513 9.14615 108.957 9.56923L110.564 11.2277C110.974 11.6677 110.974 12.3277 110.53 12.7677C110.41 12.8862 110.274 12.9538 110.12 13.0215C109.556 13.1908 109.265 13.7323 109.402 14.2908C109.675 15.5092 111.231 17.0323 112.41 17.3369C112.957 17.4723 113.521 17.1677 113.709 16.6431C113.897 16.1015 114.513 15.7969 115.094 15.9831C115.265 16.0338 115.402 16.1523 115.538 16.2538L117.145 17.9123C117.556 18.3185 117.556 18.9954 117.145 19.4354ZM112.991 10.2292C112.872 10.2292 112.769 10.2292 112.667 10.2631C112.479 10.2969 112.274 10.1446 112.256 9.92462C112.239 9.70462 112.376 9.53538 112.581 9.51846C112.718 9.48462 112.855 9.48462 112.991 9.48462C115.043 9.48462 116.684 11.1431 116.718 13.14C116.718 13.2754 116.718 13.4108 116.684 13.5462C116.65 13.7323 116.496 13.9015 116.274 13.8677C116.051 13.8338 115.915 13.6815 115.949 13.4615C115.949 13.3431 115.983 13.2415 115.983 13.14C115.966 11.5492 114.632 10.2292 112.991 10.2292ZM115.214 13.1738C115.179 13.36 115.026 13.5292 114.803 13.4954C114.632 13.4615 114.479 13.3262 114.479 13.1738C114.479 12.3785 113.812 11.7185 113.009 11.7185C112.821 11.7523 112.615 11.5831 112.598 11.38C112.564 11.1938 112.735 10.9908 112.923 10.9738H112.974C114.256 10.9738 115.214 11.9554 115.214 13.1738ZM118.051 14.3415C118.017 14.5277 117.829 14.6631 117.641 14.6462C117.453 14.6292 117.316 14.4262 117.333 14.24C117.333 14.2062 117.333 14.2062 117.333 14.1892C117.419 13.8677 117.453 13.5292 117.453 13.1738C117.453 10.7538 115.453 8.77385 113.009 8.77385C112.889 8.77385 112.786 8.77385 112.684 8.77385C112.496 8.80769 112.291 8.63846 112.291 8.43538C112.256 8.24923 112.427 8.04615 112.615 8.04615C112.752 8.04615 112.889 8.01231 113.009 8.01231C115.863 8.01231 118.205 10.3138 118.205 13.1569C118.188 13.5462 118.137 13.9692 118.051 14.3415Z" fill="white"/>
<path d="M155.001 27V18.9425C155.001 14.9825 154.148 11.9575 149.528 11.9575C147.301 11.9575 145.816 13.1675 145.211 14.3225H145.156V12.315H140.783V27H145.348V19.7125C145.348 17.7875 145.706 15.945 148.071 15.945C150.408 15.945 150.436 18.1175 150.436 19.8225V26.9725H155.001V27Z" fill="white"/>
<path d="M133.357 12.3149H137.922V26.9999H133.357V12.3149Z" fill="white"/>
<path d="M135.64 5C134.183 5 133 6.18258 133 7.64019C133 9.09779 134.183 10.3079 135.64 10.3079C137.098 10.3079 138.28 9.09779 138.28 7.64019C138.28 6.18258 137.098 5 135.64 5Z" fill="white"/>
<g clip-path="url(#clip1_4111_4744)">
<path d="M23.6942 50.8106C24.4022 51.5746 25.1489 52.2919 25.7836 53.1319C26.0636 53.5053 26.3302 53.8906 26.5329 54.3239C26.8209 54.9399 26.5596 55.6173 26.0596 55.6546L22.9529 55.6519C22.1502 55.7266 21.5116 55.3693 20.9729 54.7639C20.5436 54.2799 20.1449 53.7639 19.7302 53.2653C19.5679 53.0589 19.3797 52.8743 19.1702 52.7159C18.7476 52.4119 18.3796 52.5039 18.1369 52.9933C17.8889 53.4906 17.8329 54.0413 17.8089 54.5946C17.7756 55.4026 17.5556 55.6159 16.8196 55.6519C15.2489 55.7346 13.7582 55.4719 12.3729 54.5959C11.1516 53.8253 10.2049 52.7359 9.37958 51.5026C7.77558 49.1013 6.54758 46.4626 5.44225 43.7493C5.19291 43.1386 5.37425 42.8106 5.98625 42.7999C6.9999 42.7784 8.01389 42.7775 9.02758 42.7973C9.43958 42.8039 9.71158 43.0639 9.87158 43.4946C10.4196 44.9839 11.0902 46.4013 11.9329 47.7159C12.1582 48.0653 12.3862 48.4146 12.7129 48.6613C13.0729 48.9333 13.3476 48.8426 13.5169 48.3999C13.6236 48.1186 13.6716 47.8159 13.6956 47.5146C13.7756 46.4786 13.7862 45.4439 13.6462 44.4119C13.5596 43.7679 13.2302 43.3506 12.6489 43.2293C12.3516 43.1666 12.3956 43.0439 12.5396 42.8573C12.7902 42.5346 13.0249 42.3333 13.4942 42.3333H17.0062C17.5596 42.4533 17.6822 42.7279 17.7582 43.3426L17.7609 47.6519C17.7542 47.8893 17.8676 48.5959 18.2569 48.7533C18.5662 48.8653 18.7716 48.5906 18.9582 48.3733C19.7982 47.3866 20.3982 46.2226 20.9356 45.0159C21.1729 44.4853 21.3782 43.9359 21.5756 43.3839C21.7222 42.9759 21.9529 42.7746 22.3702 42.7839L25.7502 42.7879C25.8502 42.7879 25.9516 42.7879 26.0489 42.8066C26.6196 42.9133 26.7756 43.1853 26.5996 43.7999C26.3222 44.7639 25.7822 45.5666 25.2556 46.3733C24.6916 47.2346 24.0889 48.0666 23.5289 48.9333C23.0156 49.7253 23.0569 50.1239 23.6942 50.8106Z" fill="#EB0000"/>
</g>
<path d="M38.5952 47.8207C38.5952 47.8207 47.6934 43.8066 50.8489 42.3931C52.0585 41.8278 56.1606 40.0186 56.1606 40.0186C56.1606 40.0186 58.0539 39.2271 57.8961 41.1493C57.8434 41.9409 57.4227 44.7111 57.002 47.7076C56.3709 51.9479 55.6872 56.5838 55.6872 56.5838C55.6872 56.5838 55.5821 57.8842 54.688 58.1103C53.794 58.3365 52.3214 57.3189 52.0585 57.0927C51.8481 56.9231 48.1141 54.3789 46.7468 53.1351C46.3786 52.7959 45.9579 52.1175 46.7993 51.3259C48.6926 49.4602 50.954 47.1423 52.3214 45.6723C52.9525 44.9938 53.5836 43.4108 50.954 45.333C47.2201 48.1034 43.5387 50.704 43.5387 50.704C43.5387 50.704 42.6973 51.2694 41.1195 50.7605C39.5418 50.2518 37.7011 49.5733 37.7011 49.5733C37.7011 49.5733 36.439 48.7253 38.5952 47.8207Z" fill="#EB0000"/>
<path d="M85.2037 50.3036C85.1638 50.2829 83.671 49.4857 83.4057 49.3821C83.2974 49.34 83.1814 49.2988 83.058 49.2988C82.8564 49.2988 82.6871 49.4077 82.5552 49.6217C82.4061 49.8621 81.9546 50.4344 81.8152 50.6053C81.7969 50.6279 81.7721 50.6548 81.7572 50.6548C81.7438 50.6548 81.5128 50.5517 81.4429 50.5187C79.8415 49.7643 78.6259 47.9502 78.4593 47.6443C78.4355 47.6003 78.4345 47.5803 78.4343 47.5803C78.4401 47.5571 78.494 47.4985 78.5218 47.4683C78.6031 47.3811 78.6912 47.2661 78.7764 47.1548C78.8168 47.1021 78.8572 47.0493 78.8969 46.9996C79.0205 46.8435 79.0756 46.7224 79.1394 46.5821L79.1728 46.5092C79.3287 46.1734 79.1956 45.8901 79.1526 45.7986C79.1173 45.722 78.4869 44.0722 78.4199 43.8989C78.2588 43.4806 78.0458 43.2859 77.7499 43.2859C77.7224 43.2859 77.7499 43.2859 77.6347 43.2912C77.4945 43.2976 76.731 43.4066 76.3934 43.6374C76.0354 43.8822 75.4297 44.6624 75.4297 46.0346C75.4297 47.2697 76.1524 48.4357 76.4626 48.8792C76.4704 48.8904 76.4845 48.9131 76.5051 48.9457C77.6933 50.8277 79.1746 52.2224 80.6763 52.8729C82.122 53.4992 82.8066 53.5716 83.1958 53.5716H83.1958C83.3594 53.5716 83.4903 53.5577 83.6058 53.5454L83.679 53.5378C84.1784 53.4898 85.276 52.873 85.5256 52.1207C85.7223 51.5281 85.7741 50.8806 85.6433 50.6456C85.5537 50.4858 85.3992 50.4055 85.2037 50.3036Z" fill="#EB0000"/>
<path d="M80.1832 38.7144C74.6118 38.7144 70.0791 43.213 70.0791 48.7425C70.0791 50.5309 70.5577 52.2815 71.4644 53.8137L69.729 58.9329C69.6967 59.0283 69.7207 59.1338 69.7913 59.2057C69.8423 59.2577 69.9114 59.2858 69.982 59.2858C70.009 59.2858 70.0363 59.2817 70.0629 59.2732L75.4008 57.577C76.8615 58.3575 78.5124 58.7694 80.1832 58.7694C85.7541 58.7695 90.2863 54.2714 90.2863 48.7425C90.2863 43.213 85.7541 38.7144 80.1832 38.7144ZM80.1832 56.6806C78.611 56.6806 77.0882 56.2266 75.7793 55.3677C75.7352 55.3387 75.6842 55.3239 75.6327 55.3239C75.6055 55.3239 75.5783 55.3281 75.5518 55.3365L72.8778 56.1864L73.741 53.6398C73.7689 53.5574 73.755 53.4665 73.7036 53.3962C72.7068 52.0342 72.1799 50.425 72.1799 48.7425C72.1799 44.3648 75.7701 40.8033 80.1831 40.8033C84.5955 40.8033 88.1854 44.3648 88.1854 48.7425C88.1854 53.1196 84.5957 56.6806 80.1832 56.6806Z" fill="#EB0000"/>
<path d="M114.222 38H109.778C105.47 38 102 41.4354 102 45.7V49C102 51.9785 103.726 54.6862 106.444 55.9554V59.6446C106.444 59.8308 106.615 60 106.838 60C106.923 60 107.026 59.9662 107.094 59.8985L110.308 56.7H114.222C118.53 56.7 122 53.2646 122 49V45.7C122 41.4354 118.53 38 114.222 38ZM117.145 52.4354L116.034 53.5354C114.838 54.6862 111.761 53.3662 109.043 50.6246C106.325 47.8831 105.111 44.7862 106.256 43.6354L107.368 42.5354C107.812 42.1292 108.513 42.1462 108.957 42.5692L110.564 44.2277C110.974 44.6677 110.974 45.3277 110.53 45.7677C110.41 45.8862 110.274 45.9538 110.12 46.0215C109.556 46.1908 109.265 46.7323 109.402 47.2908C109.675 48.5092 111.231 50.0323 112.41 50.3369C112.957 50.4723 113.521 50.1677 113.709 49.6431C113.897 49.1015 114.513 48.7969 115.094 48.9831C115.265 49.0338 115.402 49.1523 115.538 49.2538L117.145 50.9123C117.556 51.3185 117.556 51.9954 117.145 52.4354ZM112.991 43.2292C112.872 43.2292 112.769 43.2292 112.667 43.2631C112.479 43.2969 112.274 43.1446 112.256 42.9246C112.239 42.7046 112.376 42.5354 112.581 42.5185C112.718 42.4846 112.855 42.4846 112.991 42.4846C115.043 42.4846 116.684 44.1431 116.718 46.14C116.718 46.2754 116.718 46.4108 116.684 46.5462C116.65 46.7323 116.496 46.9015 116.274 46.8677C116.051 46.8338 115.915 46.6815 115.949 46.4615C115.949 46.3431 115.983 46.2415 115.983 46.14C115.966 44.5492 114.632 43.2292 112.991 43.2292ZM115.214 46.1738C115.179 46.36 115.026 46.5292 114.803 46.4954C114.632 46.4615 114.479 46.3262 114.479 46.1738C114.479 45.3785 113.812 44.7185 113.009 44.7185C112.821 44.7523 112.615 44.5831 112.598 44.38C112.564 44.1938 112.735 43.9908 112.923 43.9738H112.974C114.256 43.9738 115.214 44.9554 115.214 46.1738ZM118.051 47.3415C118.017 47.5277 117.829 47.6631 117.641 47.6462C117.453 47.6292 117.316 47.4262 117.333 47.24C117.333 47.2062 117.333 47.2062 117.333 47.1892C117.419 46.8677 117.453 46.5292 117.453 46.1738C117.453 43.7538 115.453 41.7738 113.009 41.7738C112.889 41.7738 112.786 41.7738 112.684 41.7738C112.496 41.8077 112.291 41.6385 112.291 41.4354C112.256 41.2492 112.427 41.0462 112.615 41.0462C112.752 41.0462 112.889 41.0123 113.009 41.0123C115.863 41.0123 118.205 43.3138 118.205 46.1569C118.188 46.5462 118.137 46.9692 118.051 47.3415Z" fill="#EB0000"/>
<path d="M155.001 60V51.9425C155.001 47.9825 154.148 44.9575 149.528 44.9575C147.301 44.9575 145.816 46.1675 145.211 47.3225H145.156V45.315H140.783V60H145.348V52.7125C145.348 50.7875 145.706 48.945 148.071 48.945C150.408 48.945 150.436 51.1175 150.436 52.8225V59.9725H155.001V60Z" fill="#EB0000"/>
<path d="M133.357 45.3149H137.922V59.9999H133.357V45.3149Z" fill="#EB0000"/>
<path d="M135.64 38C134.183 38 133 39.1826 133 40.6402C133 42.0978 134.183 43.3079 135.64 43.3079C137.098 43.3079 138.28 42.0978 138.28 40.6402C138.28 39.1826 137.098 38 135.64 38Z" fill="#EB0000"/>
<defs>
<clipPath id="clip0_4111_4744">
<rect width="32" height="32" fill="white"/>
</clipPath>
<clipPath id="clip1_4111_4744">
<rect width="32" height="32" fill="white" transform="translate(0 33)"/>
</clipPath>
</defs>
</svg>
