<svg width="40" height="40" viewBox="0 0 40 40" fill="none" xmlns="http://www.w3.org/2000/svg">
<path d="M22.5001 2.19492C23.2988 2.98016 24.42 3.34453 25.5277 3.17867C27.4518 2.89063 29.2517 4.19828 29.5723 6.11727C29.7569 7.22203 30.4499 8.17578 31.4435 8.69273C33.1695 9.59062 33.8569 11.7065 32.9884 13.4474C32.4884 14.4497 32.4884 15.6286 32.9884 16.6309C33.857 18.3718 33.1695 20.4877 31.4435 21.3855C30.4499 21.9025 29.7569 22.8562 29.5723 23.961C29.2517 25.88 27.4518 27.1877 25.5277 26.8996C24.42 26.7338 23.2988 27.098 22.5001 27.8834C21.1128 29.2474 18.8881 29.2474 17.5007 27.8834C16.7021 27.0981 15.5808 26.7338 14.4732 26.8996C12.549 27.1877 10.7492 25.88 10.4286 23.961C10.2439 22.8562 9.55098 21.9025 8.55739 21.3855C6.83137 20.4877 6.14395 18.3718 7.01247 16.6309C7.51247 15.6286 7.51247 14.4497 7.01247 13.4474C6.14387 11.7065 6.83137 9.59062 8.55739 8.69273C9.55098 8.17578 10.2439 7.22203 10.4286 6.11727C10.7492 4.19828 12.549 2.89063 14.4732 3.17867C15.5809 3.34453 16.7021 2.98023 17.5007 2.19492C18.8881 0.830859 21.1128 0.830859 22.5001 2.19492Z" stroke="#D70000" stroke-width="2" stroke-miterlimit="10" stroke-linecap="round" stroke-linejoin="round"/>
<path d="M20 22.7734C24.2716 22.7734 27.7344 19.3106 27.7344 15.0391C27.7344 10.7675 24.2716 7.30469 20 7.30469C15.7284 7.30469 12.2656 10.7675 12.2656 15.0391C12.2656 19.3106 15.7284 22.7734 20 22.7734Z" stroke="#D70000" stroke-width="2" stroke-miterlimit="10" stroke-linecap="round" stroke-linejoin="round"/>
<path d="M11.6805 26.126L7.46875 35.1658L13.3789 32.7479L15.3297 38.8283L19.9531 28.9057" stroke="#D70000" stroke-width="2" stroke-miterlimit="10" stroke-linecap="round" stroke-linejoin="round"/>
<path d="M28.3234 26.126L32.5352 35.1658L26.625 32.7479L24.6742 38.8283L20.0508 28.9057" stroke="#D70000" stroke-width="2" stroke-miterlimit="10" stroke-linecap="round" stroke-linejoin="round"/>
</svg>
