<svg width="40" height="40" viewBox="0 0 40 40" fill="none" xmlns="http://www.w3.org/2000/svg">
<g clip-path="url(#clip0_2208_8393)">
<mask id="mask0_2208_8393" style="mask-type:luminance" maskUnits="userSpaceOnUse" x="0" y="0" width="40" height="40">
<path d="M0 3.8147e-06H40V40H0V3.8147e-06Z" fill="white"/>
</mask>
<g mask="url(#mask0_2208_8393)">
<path d="M30.8594 3.51563H4.29688C2.57102 3.51563 1.17188 4.91477 1.17188 6.64063V11.3281H33.9844V6.64063C33.9844 4.91477 32.5853 3.51563 30.8594 3.51563Z" stroke="#D70000" stroke-width="2" stroke-miterlimit="10" stroke-linecap="round" stroke-linejoin="round"/>
<path d="M7.73438 5.85938V1.17188" stroke="#D70000" stroke-width="2" stroke-miterlimit="10" stroke-linecap="round" stroke-linejoin="round"/>
<path d="M27.4219 5.85938V1.17188" stroke="#D70000" stroke-width="2" stroke-miterlimit="10" stroke-linecap="round" stroke-linejoin="round"/>
<path d="M20.8594 5.85938V1.17188" stroke="#D70000" stroke-width="2" stroke-miterlimit="10" stroke-linecap="round" stroke-linejoin="round"/>
<path d="M14.2969 5.85938V1.17188" stroke="#D70000" stroke-width="2" stroke-miterlimit="10" stroke-linecap="round" stroke-linejoin="round"/>
<path d="M20.0781 16.6016H22.0312" stroke="#D70000" stroke-width="2" stroke-miterlimit="10" stroke-linecap="round" stroke-linejoin="round"/>
<path d="M13.125 16.6016H15.0781" stroke="#D70000" stroke-width="2" stroke-miterlimit="10" stroke-linecap="round" stroke-linejoin="round"/>
<path d="M27.0312 16.6016H28.9844" stroke="#D70000" stroke-width="2" stroke-miterlimit="10" stroke-linecap="round" stroke-linejoin="round"/>
<path d="M6.17188 21.875H8.125" stroke="#D70000" stroke-width="2" stroke-miterlimit="10" stroke-linecap="round" stroke-linejoin="round"/>
<path d="M13.125 21.875H15.0781" stroke="#D70000" stroke-width="2" stroke-miterlimit="10" stroke-linecap="round" stroke-linejoin="round"/>
<path d="M20.0781 21.875H22.0312" stroke="#D70000" stroke-width="2" stroke-miterlimit="10" stroke-linecap="round" stroke-linejoin="round"/>
<path d="M6.17188 27.1484H8.125" stroke="#D70000" stroke-width="2" stroke-miterlimit="10" stroke-linecap="round" stroke-linejoin="round"/>
<path d="M13.125 27.1484H15.0781" stroke="#D70000" stroke-width="2" stroke-miterlimit="10" stroke-linecap="round" stroke-linejoin="round"/>
<path d="M38.8281 30.2344C38.8281 34.9805 34.9805 38.8281 30.2344 38.8281C25.4882 38.8281 21.6406 34.9805 21.6406 30.2344C21.6406 25.4882 25.4882 21.6406 30.2344 21.6406C34.9805 21.6406 38.8281 25.4882 38.8281 30.2344Z" stroke="#D70000" stroke-width="2" stroke-miterlimit="10" stroke-linecap="round" stroke-linejoin="round"/>
<path d="M30.2344 26.3281V30.2344H34.1406" stroke="#D70000" stroke-width="2" stroke-miterlimit="10" stroke-linecap="round" stroke-linejoin="round"/>
<path d="M33.9844 22.5001V11.3282H1.17188V30.0782C1.17188 31.3725 2.22125 32.4219 3.51562 32.4219H21.922" stroke="#D70000" stroke-width="2" stroke-miterlimit="10" stroke-linecap="round" stroke-linejoin="round"/>
</g>
</g>
<defs>
<clipPath id="clip0_2208_8393">
<rect width="40" height="40" fill="white"/>
</clipPath>
</defs>
</svg>
