<svg width="44" height="55" viewBox="0 0 44 55" fill="none" xmlns="http://www.w3.org/2000/svg">
<circle cx="21.718" cy="21.718" r="21.718" fill="white"/>
<path fill-rule="evenodd" clip-rule="evenodd" d="M17.3772 25.1813C19.7173 27.5215 23.5252 27.5078 25.8823 25.1506C28.2395 22.7935 28.2532 18.9856 25.913 16.6454C23.5729 14.3053 19.7649 14.319 17.4078 16.6761C15.0507 19.0332 15.037 22.8411 17.3772 25.1813ZM14.6039 13.8734L14.6364 13.841L14.58 13.7846L6.78788 5.99247C10.6971 2.2788 15.9824 0 21.8 0C33.8398 0 43.6 9.76019 43.6 21.8C43.6 32.8753 34.3764 42.0216 24.414 51.9006C23.5464 52.7609 22.6732 53.6268 21.8 54.5C20.9268 53.6268 20.0536 52.7609 19.186 51.9006C9.22356 42.0216 0 32.8753 0 21.8C0 18.7378 0.631362 15.8231 1.77101 13.1789L11.338 22.746L11.6442 23.0521L11.9583 23.3663L12.0151 23.3095C11.3476 20.1103 12.121 16.3725 14.612 13.8815L14.6039 13.8734Z" fill="#D70000"/>
</svg>
